<svg width="27" height="27" viewBox="0 0 27 27" fill="none" xmlns="http://www.w3.org/2000/svg">
    <g clip-path="url(#clip0)">
        <path d="M16.9638 4.61765L22.2491 9.90291L8.87055 23.2815L3.58823 17.9962L16.9638 4.61765ZM26.2596 3.34297L23.9026 0.985922C22.9917 0.0750053 21.5126 0.0750053 20.5985 0.985922L18.3407 3.24373L23.626 8.52904L26.2596 5.89543C26.9662 5.18887 26.9662 4.04948 26.2596 3.34297ZM0.822325 25.4251C0.726139 25.858 1.11697 26.2459 1.54991 26.1406L7.4395 24.7126L2.15719 19.4273L0.822325 25.4251Z" fill="url(#paint0_linear)"/>
    </g>
    <defs>
        <linearGradient id="paint0_linear" x1="1.18944" y1="13.5171" x2="27.255" y2="13.5171" gradientUnits="userSpaceOnUse">
            <stop stop-color="#2D38F2"/>
            <stop offset="1" stop-color="#5A01F2"/>
        </linearGradient>
        <clipPath id="clip0">
            <rect x="0.807617" y="0.23877" width="25.9819" height="25.9819" fill="white"/>
        </clipPath>
    </defs>
</svg>
