<svg width="51" height="61" viewBox="0 0 51 61" fill="none" xmlns="http://www.w3.org/2000/svg">
    <path d="M51 25.5C51 39.0593 39.8776 48.5204 31 50C27 50.6667 25.5 57 25.5 57C25.5 57 23 50.5 20 50C13.0952 48.8492 0 39.0593 0 25.5C0 11.4167 11.4167 0 25.5 0C39.5833 0 51 11.4167 51 25.5Z" fill="#261746"/>
    <circle cx="25.5" cy="25.5" r="5.5" fill="white"/>
</svg>
