<svg width="53" height="53" viewBox="0 0 53 53" fill="none" xmlns="http://www.w3.org/2000/svg">
    <g clip-path="url(#clip0)">
        <path d="M9.32166 40.9869C8.57967 40.9869 7.86638 41.1721 7.23356 41.5199C3.90003 37.2466 2.07031 31.9382 2.07031 26.5C2.07031 13.0292 13.0292 2.07031 26.5 2.07031C28.1376 2.07031 29.7745 2.23327 31.3652 2.55473C31.9249 2.66795 32.4716 2.30565 32.5848 1.74521C32.698 1.18477 32.3357 0.638886 31.7753 0.525261C30.0499 0.176704 28.2751 0 26.5 0C19.4217 0 12.7668 2.75651 7.76165 7.76165C2.75651 12.7668 0 19.4217 0 26.5C0 32.4542 2.02179 38.2648 5.70266 42.923C5.22875 43.631 4.97401 44.4632 4.97401 45.3346C4.97401 46.4959 5.42648 47.5877 6.24773 48.4085C7.06858 49.2298 8.16035 49.6822 9.32166 49.6822C10.483 49.6822 11.5747 49.2298 12.396 48.4085C13.2172 47.5877 13.6693 46.4955 13.6693 45.3342C13.6693 44.1733 13.2172 43.0811 12.396 42.2603C11.5747 41.439 10.483 40.9869 9.32166 40.9869ZM10.9318 46.9447C10.502 47.375 9.92982 47.6119 9.32166 47.6119C8.71351 47.6119 8.14175 47.375 7.71151 46.9447C7.28127 46.5145 7.04432 45.9427 7.04432 45.3346C7.04432 44.726 7.28127 44.1543 7.71151 43.724C8.14134 43.2938 8.71351 43.0572 9.32166 43.0572C9.92982 43.0572 10.5016 43.2942 10.9318 43.724C11.3621 44.1543 11.599 44.726 11.599 45.3346C11.599 45.9427 11.3621 46.5145 10.9318 46.9447Z" fill="#261746"/>
        <path d="M47.2965 10.0759C48.4218 8.38771 48.2411 6.07964 46.7526 4.59119C45.9314 3.77035 44.8396 3.31787 43.6783 3.31787C42.517 3.31787 41.4252 3.77035 40.604 4.59119C39.7827 5.41245 39.3306 6.50421 39.3306 7.66553C39.3306 8.82684 39.7827 9.91861 40.604 10.7399C41.4252 11.5611 42.517 12.0132 43.6783 12.0132C44.4203 12.0132 45.1336 11.828 45.7664 11.4802C49.0999 15.7539 50.9296 21.0619 50.9296 26.5001C50.9296 39.9709 39.9707 50.9298 26.5 50.9298C24.8785 50.9298 23.257 50.7701 21.6812 50.4547C21.1208 50.3427 20.5753 50.7062 20.4629 51.2666C20.3509 51.8275 20.7144 52.3726 21.2748 52.485C22.9841 52.8267 24.7422 53.0001 26.5 53.0001C33.5782 53.0001 40.2332 50.2436 45.2383 45.2385C50.2435 40.2333 53 33.5784 53 26.5001C53 20.5455 50.9778 14.7345 47.2965 10.0759ZM42.0681 9.27609C41.6379 8.84585 41.401 8.27409 41.401 7.66553C41.401 7.05737 41.6379 6.48561 42.0681 6.05537C42.498 5.62514 43.0701 5.38818 43.6783 5.38818C44.2864 5.38818 44.8586 5.62514 45.2889 6.05537C46.1764 6.94334 46.1764 8.38812 45.2889 9.27609C44.8586 9.70592 44.2864 9.94287 43.6783 9.94287C43.0697 9.94287 42.498 9.70592 42.0681 9.27609Z" fill="#261746"/>
        <path d="M22.2283 44.3047C22.2283 44.8764 22.6921 45.3398 23.2634 45.3398H29.736C30.3078 45.3398 30.7711 44.8764 30.7711 44.3047V42.2979C32.1322 41.9315 33.4334 41.3921 34.6562 40.6877L36.0731 42.1046C36.2672 42.2987 36.5304 42.4078 36.8054 42.4078C37.0795 42.4078 37.3432 42.2987 37.5373 42.1042L42.1122 37.526C42.5161 37.1217 42.5161 36.4662 42.1122 36.0623L40.6969 34.647C41.4013 33.4242 41.9407 32.123 42.3071 30.7619H44.3062C44.878 30.7619 45.3414 30.2985 45.3414 29.7268V23.2542C45.3414 22.6825 44.878 22.2191 44.3062 22.2191H42.3067C41.9403 20.8584 41.4013 19.5572 40.6969 18.3344L42.1045 16.9268C42.2986 16.7327 42.4078 16.4691 42.4078 16.1945C42.4074 15.92 42.2982 15.6563 42.1041 15.4622L37.5255 10.8873C37.1216 10.4834 36.4661 10.4834 36.0618 10.8877L34.6562 12.2937C33.4334 11.5893 32.1322 11.0499 30.7711 10.6835V8.69531C30.7711 8.12355 30.3078 7.66016 29.736 7.66016H23.2634C22.6921 7.66016 22.2283 8.12355 22.2283 8.69531V10.6839C20.8676 11.0499 19.5664 11.5893 18.3436 12.2937L16.9377 10.8877C16.5337 10.4838 15.8782 10.4834 15.4739 10.8873L10.8957 15.4626C10.7012 15.6567 10.5921 15.92 10.5921 16.1945C10.5921 16.4691 10.7012 16.7327 10.8953 16.9268L12.3029 18.3344C11.5985 19.5572 11.0591 20.858 10.6928 22.2191H8.69724C8.12548 22.2191 7.66209 22.6825 7.66209 23.2538L7.65845 29.7264C7.65804 30.0009 7.76722 30.2646 7.96131 30.4587C8.1554 30.6528 8.41864 30.7619 8.6936 30.7619H10.6928C11.0591 32.123 11.5985 33.4242 12.3029 34.647L10.8877 36.0623C10.4837 36.4662 10.4833 37.1217 10.8877 37.526L15.4626 42.1042C15.6566 42.2983 15.9199 42.4078 16.1944 42.4078H16.1948C16.4694 42.4078 16.7326 42.2987 16.9267 42.1046L18.3432 40.6877C19.5664 41.3921 20.8676 41.9315 22.2283 42.2979V44.3047ZM18.7492 38.5106C18.3396 38.2458 17.8006 38.3032 17.4552 38.6481L16.1948 39.9085L13.0833 36.7945L14.3425 35.535C14.6874 35.1901 14.7448 34.651 14.48 34.2414C13.5415 32.789 12.8815 31.197 12.5192 29.5092C12.4165 29.0325 11.9952 28.6916 11.5071 28.6916H9.72917L9.73159 24.2894H11.5071C11.9952 24.2894 12.4165 23.9489 12.5192 23.4718C12.8815 21.7844 13.5415 20.1924 14.48 18.74C14.7448 18.3304 14.6874 17.7913 14.3425 17.4464L13.0914 16.1949L16.2054 13.0834L17.4552 14.3337C17.8006 14.6786 18.3392 14.7356 18.7492 14.4712C20.2012 13.5326 21.7932 12.8727 23.481 12.5104C23.9577 12.4077 24.2986 11.986 24.2986 11.4983V9.73047H28.7008V11.4979C28.7008 11.986 29.0413 12.4077 29.5184 12.51C31.2058 12.8727 32.7982 13.5322 34.2502 14.4708C34.6599 14.7356 35.1989 14.6786 35.5438 14.3333L36.7941 13.0834L39.908 16.1949L38.6569 17.446C38.3116 17.7913 38.2546 18.3304 38.5194 18.74C39.458 20.1924 40.1175 21.7844 40.4802 23.4718C40.5825 23.9489 41.0042 24.2894 41.4923 24.2894H43.2711V28.6916H41.4923C41.0042 28.6916 40.5829 29.0325 40.4802 29.5092C40.1179 31.1966 39.458 32.789 38.5194 34.241C38.2546 34.651 38.312 35.1901 38.6569 35.535L39.9161 36.7941L36.8046 39.9081L35.5442 38.6481C35.1989 38.3028 34.6599 38.2458 34.2502 38.5106C32.7978 39.4492 31.2058 40.1087 29.5184 40.4714C29.0413 40.5741 28.7008 40.9954 28.7008 41.4835V43.2695H24.2986V41.4835C24.2986 40.9958 23.9577 40.5741 23.481 40.4714C21.7936 40.1091 20.2016 39.4492 18.7492 38.5106Z" fill="#293DF2"/>
        <path d="M35.0533 26.4999C35.0533 21.7835 31.2163 17.9465 26.4999 17.9465C21.7835 17.9465 17.9465 21.7835 17.9465 26.4999C17.9465 31.2163 21.7835 35.0533 26.4999 35.0533C31.2163 35.0533 35.0533 31.2163 35.0533 26.4999ZM20.0168 26.4999C20.0168 22.925 22.925 20.0168 26.4999 20.0168C30.0748 20.0168 32.983 22.9254 32.983 26.4999C32.983 30.0744 30.0748 32.983 26.4999 32.983C22.925 32.983 20.0168 30.0748 20.0168 26.4999Z" fill="#293DF2"/>
        <path d="M36.0315 3.91503C36.304 3.91503 36.5709 3.80424 36.7634 3.61176C36.9559 3.41808 37.0667 3.1512 37.0667 2.87866C37.0667 2.60774 36.9563 2.34046 36.7634 2.14677C36.5709 1.9543 36.304 1.84351 36.0315 1.84351C35.7581 1.84351 35.4925 1.9543 35.3 2.14677C35.1071 2.34046 34.9963 2.60653 34.9963 2.87866C34.9963 3.15201 35.1071 3.41808 35.3 3.61176C35.4925 3.80424 35.7581 3.91503 36.0315 3.91503Z" fill="#261746"/>
        <path d="M17.0137 49.1035C16.7415 49.1035 16.4743 49.2143 16.2818 49.4068C16.0893 49.5993 15.9785 49.8665 15.9785 50.1387C15.9785 50.412 16.0893 50.6781 16.2818 50.8706C16.4743 51.063 16.7415 51.1738 17.0137 51.1738C17.2858 51.1738 17.5531 51.063 17.7456 50.8706C17.938 50.6781 18.0488 50.4108 18.0488 50.1387C18.0488 49.8665 17.938 49.5993 17.7456 49.4068C17.5531 49.2143 17.2858 49.1035 17.0137 49.1035Z" fill="#261746"/>
    </g>
    <defs>
        <clipPath id="clip0">
            <rect width="53" height="53" fill="white"/>
        </clipPath>
    </defs>
</svg>
