<svg width="56" height="70" viewBox="0 0 56 70" fill="none" xmlns="http://www.w3.org/2000/svg">
    <path d="M53.3984 11.7532H23.551C22.488 11.7532 21.4591 12.1436 20.5807 12.8776L0.620814 29.2818C0.232094 29.6065 0 30.1494 0 30.7339V39.2978C0 40.261 0.626829 41.0445 1.39738 41.0445H4.00751C11.4384 41.0445 18.0644 47.4202 19.7629 56.2046C19.9954 57.4069 20.8452 58.2467 21.8295 58.2467H53.3983C54.833 58.2467 56 56.7877 56 54.9945V15.0056C56.0001 13.2122 54.833 11.7532 53.3984 11.7532ZM53.3984 56.192H21.8295C21.607 56.192 21.4142 55.9987 21.3608 55.7219C21.1878 54.8276 20.9685 53.9563 20.7068 53.1107H37.8486C38.3025 53.1107 38.6706 52.6506 38.6706 52.0832C38.6706 51.5158 38.3025 51.0558 37.8486 51.0558H19.9671C16.9938 43.8496 10.8056 38.9898 4.00751 38.9898H1.64391V30.9L21.4889 14.5901C22.1012 14.0785 22.8144 13.8079 23.551 13.8079H53.3984C53.9266 13.8079 54.3563 14.3451 54.3563 15.0053V54.9945C54.3563 55.655 53.9266 56.192 53.3984 56.192Z" fill="#261746"/>
    <path d="M51.0822 15.7354H23.551C23.1205 15.7354 22.7039 15.8934 22.3515 16.1878L3.7205 31.4814C3.38548 31.7614 3.18555 32.2293 3.18555 32.7329V35.7166C3.18555 36.5469 3.72597 37.2222 4.38999 37.2222H17.589C18.0429 37.2222 18.4109 36.7622 18.4109 36.1948C18.4109 35.6274 18.0429 35.1674 17.589 35.1674H4.82935V33.0294L23.2592 17.9007C23.3459 17.8284 23.4466 17.79 23.5509 17.79H51.0822C51.1309 17.79 51.1707 17.8396 51.1707 17.9007V35.0568C51.1707 35.1177 51.131 35.1675 51.0822 35.1675H20.8768C20.4229 35.1675 20.0548 35.6276 20.0548 36.1949C20.0548 36.7623 20.4229 37.2224 20.8768 37.2224H51.0822C52.0373 37.2224 52.8145 36.251 52.8145 35.0569V17.9007C52.8145 16.7067 52.0373 15.7354 51.0822 15.7354Z" fill="#293DF2"/>
    <path d="M24.8684 24.1309C25.2818 24.1309 25.2931 24.0399 27.1564 22.5159C27.4028 22.3241 27.524 22.0164 27.4729 21.712C27.4218 21.4075 27.2065 21.1541 26.9104 21.0499C26.6143 20.9458 26.2838 21.0071 26.0471 21.2103L24.3137 22.6264C24.0322 22.8552 23.9274 23.2327 24.0517 23.5699C24.176 23.9071 24.5028 24.1316 24.8684 24.1309Z" fill="#293DF2"/>
    <path d="M25.9361 26.6578C26.2425 27.0182 26.7887 27.0669 27.1564 26.7666L32.3564 22.5166C32.6028 22.3248 32.7239 22.0171 32.6728 21.7127C32.6217 21.4083 32.4064 21.1549 32.1103 21.0507C31.8142 20.9465 31.4838 21.0079 31.247 21.211L26.047 25.461C25.6796 25.7615 25.6299 26.2972 25.9361 26.6578Z" fill="#293DF2"/>
    <path d="M49.8264 51.0952H41.6713C41.2174 51.0952 40.8494 51.5553 40.8494 52.1227C40.8494 52.69 41.2174 53.1501 41.6713 53.1501H49.8264C50.2804 53.1501 50.6484 52.69 50.6484 52.1227C50.6484 51.5553 50.2804 51.0952 49.8264 51.0952Z" fill="#261746"/>
    <path d="M49.2413 39.1494H42.8937C42.1178 39.1494 41.4866 39.9384 41.4866 40.9083V43.5865C41.4866 44.5564 42.1178 45.3454 42.8937 45.3454H49.2413C50.0172 45.3454 50.6484 44.5564 50.6484 43.5865V40.9083C50.6484 39.9384 50.0172 39.1494 49.2413 39.1494ZM45.9397 43.2906H43.1304V41.2042H45.9397V43.2906ZM49.0046 43.2906H47.5837V41.2042H49.0046V43.2906Z" fill="#261746"/>
</svg>
