<svg width="57" height="58" viewBox="0 0 57 58" fill="none" xmlns="http://www.w3.org/2000/svg">
    <path d="M54.0767 13.6018C53.9567 11.7171 52.7412 10.0519 50.9813 9.35962L30.3165 1.23006C29.1601 0.775176 27.8859 0.774741 26.7292 1.23006L6.06475 9.35962C4.30438 10.0519 3.08933 11.7171 2.96931 13.6018C2.8545 15.4013 2.45659 24.8869 5.90385 34.9081C7.62813 39.9209 10.0478 44.2893 13.0954 47.8918C16.7623 52.2262 21.368 55.4808 26.7848 57.5651C27.3454 57.7808 27.9342 57.8887 28.523 57.8887C29.1118 57.8887 29.7007 57.7808 30.2612 57.5651C35.678 55.4808 40.2838 52.2262 43.9507 47.8918C46.9983 44.2893 49.4175 39.9209 51.1422 34.9081C54.5895 24.8869 54.1916 15.4013 54.0767 13.6018ZM49.558 34.3632C47.9011 39.1786 45.5845 43.3665 42.6717 46.8098C39.1888 50.9268 34.8109 54.0196 29.6598 56.0018C28.9266 56.2836 28.119 56.2836 27.3863 56.0018C22.2352 54.0196 17.8573 50.9268 14.3744 46.8098C11.4616 43.3665 9.14454 39.179 7.4881 34.3632C4.14434 24.6438 4.52964 15.4522 4.64097 13.7084C4.71968 12.4694 5.51942 11.3744 6.67836 10.9186L27.3423 2.78865C27.7233 2.63905 28.1229 2.56425 28.523 2.56425C28.9227 2.56425 29.3228 2.63905 29.7033 2.78865L50.3677 10.9186C51.5262 11.3744 52.3259 12.4694 52.4051 13.7084C52.516 15.4522 52.9013 24.6438 49.558 34.3632Z" fill="#261746"/>
    <path d="M46.1685 13.4066L29.9933 7.04345C29.0449 6.67033 28.0007 6.67033 27.0527 7.04345L10.8775 13.4066C9.43416 13.9745 8.43786 15.34 8.33958 16.8851C8.2687 17.9962 8.15824 21.0104 8.65791 24.9877C8.71575 25.447 9.1354 25.7722 9.59376 25.7144C10.0526 25.6566 10.3778 25.2378 10.32 24.7785C9.83816 20.9429 9.94384 18.0549 10.0112 16.9917C10.0686 16.0919 10.6496 15.2965 11.4911 14.9656L27.6659 8.60205C28.2186 8.38461 28.8274 8.38461 29.3802 8.60205L45.5549 14.9656C46.3964 15.2965 46.9774 16.0919 47.0348 16.9917C47.1492 18.7847 47.8646 34.7972 37.9211 44.6737C37.5928 44.9994 37.5911 45.5299 37.9172 45.8583C38.0807 46.0231 38.2964 46.1053 38.5117 46.1053C38.7248 46.1053 38.9383 46.0244 39.1018 45.8622C49.5697 35.4647 48.8256 18.756 48.7065 16.8851C48.6078 15.34 47.6119 13.9745 46.1685 13.4066Z" fill="#261746"/>
    <path d="M35.0427 47.1181C33.3228 48.3606 31.4063 49.3925 29.3476 50.1849C28.8157 50.3893 28.2304 50.3893 27.6985 50.1849C16.7618 45.9761 12.5588 36.1123 10.9589 28.5781C10.8632 28.1254 10.417 27.8366 9.96561 27.9327C9.51334 28.0288 9.22415 28.4733 9.32025 28.926C11.0063 36.8655 15.4594 47.2699 27.0971 51.7482C27.5568 51.9252 28.0399 52.0135 28.5231 52.0135C29.0062 52.0135 29.4893 51.9252 29.949 51.7482C32.143 50.9041 34.1864 49.803 36.0238 48.4758C36.3987 48.2053 36.483 47.6817 36.2125 47.3064C35.9412 46.9316 35.4176 46.8472 35.0427 47.1181Z" fill="#261746"/>
    <path d="M28.523 16.9321C21.6546 16.9321 16.0665 22.5198 16.0665 29.3882C16.0665 36.2571 21.6546 41.8448 28.523 41.8448C35.3915 41.8448 40.9792 36.2571 40.9792 29.3886C40.9792 22.5202 35.3915 16.9321 28.523 16.9321ZM28.523 40.1696C22.5783 40.1696 17.7416 35.3334 17.7416 29.3886C17.7416 23.4439 22.5783 18.6072 28.523 18.6072C34.4678 18.6072 39.304 23.4439 39.304 29.3886C39.304 35.3334 34.4678 40.1696 28.523 40.1696Z" fill="#293DF2"/>
    <path d="M36.47 26.144C36.4426 25.3143 36.0673 24.5267 35.4397 23.9827L35.2362 23.8066C34.0307 22.762 32.2221 22.8459 31.1188 23.9979L26.6822 28.6307L25.5646 27.6248C24.3421 26.525 22.45 26.6224 21.3467 27.8422C20.7992 28.448 20.527 29.2304 20.5813 30.0453C20.6353 30.8603 21.008 31.6 21.6311 32.1279L25.0088 34.9916C25.5733 35.47 26.2595 35.7065 26.9436 35.7065C27.7033 35.7065 28.4609 35.4143 29.0449 34.8368L35.5841 28.368C36.1742 27.784 36.4969 26.9734 36.47 26.144ZM34.406 27.1769L27.8668 33.6456C27.3789 34.1284 26.6157 34.1575 26.0921 33.7139L22.7144 30.8503C22.4404 30.618 22.2765 30.2928 22.2526 29.9344C22.2286 29.5761 22.3482 29.2321 22.5892 28.9655C22.8483 28.6794 23.2058 28.5337 23.565 28.5337C23.8786 28.5337 24.1934 28.6446 24.4439 28.8703L25.6711 29.9749C26.2865 30.5285 27.2171 30.4941 27.7898 29.8961L32.3286 25.1569C32.8135 24.6502 33.6089 24.6133 34.139 25.0725L34.3425 25.2491C34.6226 25.4913 34.7831 25.8288 34.7953 26.1993C34.8079 26.5694 34.6696 26.9164 34.406 27.1769Z" fill="#293DF2"/>
</svg>
