<svg width="62" height="61" viewBox="0 0 62 61" fill="none" xmlns="http://www.w3.org/2000/svg">
<g clip-path="url(#clip0)">
<path d="M53.2857 0H50.62C49.4483 0 49.4483 1.78737 50.62 1.78737H53.2857C56.0386 1.78737 58.2783 3.98297 58.2783 6.68166V27.3641C58.2783 30.0629 56.0387 32.2585 53.2857 32.2585H50.2624C50.0629 32.2585 49.869 32.3231 49.7105 32.4424L44.1629 36.6174V33.1522C44.1629 32.6587 43.7563 32.2585 43.2545 32.2585H32.1995C31.2942 32.2585 30.4241 32.0234 29.6568 31.5765V21.5443C29.6568 19.6652 28.684 18.005 27.2068 17.0228V6.68166C27.2068 3.98297 29.4465 1.78737 32.1995 1.78737H44.9278C46.0994 1.78737 46.0994 0 44.9278 0H32.1995C28.4448 0 25.3901 2.99742 25.3901 6.68166V16.2373C24.9742 16.1396 24.5409 16.0863 24.095 16.0863H7.46688C4.40023 16.0863 1.90521 18.5348 1.90521 21.5443V23.4741C1.90521 24.6268 3.72188 24.6268 3.72188 23.4741V21.5443C3.72188 19.5203 5.40182 17.8737 7.46688 17.8737H24.0951C26.1602 17.8737 27.8402 19.5203 27.8402 21.5443V31.9323C27.8293 32.0112 27.8298 32.0906 27.8402 32.1689V37.8542C27.8402 37.9666 27.8333 38.0784 27.823 38.1897H25.9498C23.8857 38.1897 22.1649 39.6555 21.8082 41.5819C21.7256 41.6125 21.6462 41.6553 21.5727 41.7111L17.51 44.7974V42.4185C17.51 41.925 17.1035 41.5248 16.6017 41.5248H7.46688C5.40182 41.5248 3.72188 39.8782 3.72188 37.8542V28.8362C3.72188 27.6835 1.90521 27.6835 1.90521 28.8362V37.8543C1.90521 40.8639 4.40023 43.3123 7.46688 43.3123H15.6935V46.6166C15.6935 47.3334 16.5782 47.7635 17.157 47.324L21.7392 43.8431V53.897C21.7392 56.1759 23.6282 58.0298 25.9499 58.0298H31.5241V60.1151C31.5241 60.8318 32.4088 61.2623 32.9874 60.8226L36.6639 58.0298H37.75C40.0717 58.0298 41.9607 56.1758 41.9607 53.897V52.3103C41.9607 51.1576 40.144 51.1576 40.144 52.3103V53.897C40.144 55.1903 39.0701 56.2424 37.75 56.2424H36.354C36.1531 56.2424 35.9578 56.3079 35.7989 56.4286L33.3406 58.296V57.136C33.3406 56.6424 32.934 56.2423 32.4323 56.2423H25.9498C24.6298 56.2423 23.5558 55.1901 23.5558 53.8969V42.3226C23.5558 41.0293 24.6297 39.9772 25.9498 39.9772H37.75C39.07 39.9772 40.144 41.0294 40.144 42.3226V46.7099C40.144 47.8626 41.9607 47.8626 41.9607 46.7099V42.3227C41.9607 40.0438 40.0717 38.19 37.75 38.19H29.6465C29.6534 38.0783 29.6569 33.5645 29.6569 33.5645C30.4578 33.8813 31.3165 34.046 32.1996 34.046H42.3463V38.4263C42.3463 39.1413 43.2273 39.5718 43.8066 39.1361L50.5701 34.046H53.2858C57.0404 34.046 60.0951 31.0486 60.0951 27.3642V6.68166C60.0949 2.99742 57.0403 0 53.2857 0V0Z" fill="#261746"/>
<path d="M45.0122 6.60275C43.8589 6.31308 42.6836 7.20963 42.6836 8.38214C42.6836 9.6632 42.2091 10.8978 41.3481 11.8579L38.8455 14.6441C38.6834 14.3995 38.4034 14.2376 38.0846 14.2376H33.1989C32.6972 14.2376 32.2906 14.6377 32.2906 15.1312V25.9466C32.2906 26.4401 32.6972 26.8403 33.1989 26.8403H38.0846C38.4516 26.8403 38.767 26.6257 38.9103 26.3175C39.8994 26.9121 41.0456 27.2336 42.2118 27.2336H50.846C52.1654 27.2336 53.2539 26.1072 53.192 24.8125C53.1645 24.2391 53.1945 16.5399 53.1945 16.3689C53.1945 15.0949 52.141 14.0582 50.8487 14.0582L46.3588 14.045L46.5447 13.6119C47.3943 11.6323 47.2544 9.33683 46.1709 7.47118C45.918 7.0353 45.5064 6.72704 45.0122 6.60275C45.5064 6.72704 44.5179 6.47859 45.0122 6.60275C45.5064 6.72704 43.859 6.31308 45.0122 6.60275ZM37.1762 25.0529H34.1073V16.0249H37.1762V25.0529ZM50.846 15.8455C51.1394 15.8455 51.378 16.0802 51.378 16.3688C51.378 16.5388 51.3762 17.0003 51.3737 17.626C51.3603 21.0807 51.3513 24.3525 51.3772 24.8963C51.3867 25.0926 51.2897 25.2234 51.2311 25.284C51.1296 25.3886 50.9928 25.4461 50.846 25.4461H42.2118C41.1826 25.4461 40.1753 25.0952 39.3752 24.4581L38.9929 24.1535V17.1791L42.7099 13.0409C43.8645 11.7535 44.5003 10.099 44.5003 8.38202C44.5003 8.3315 44.5704 8.31839 44.5937 8.35771C45.3981 9.74268 45.5018 11.4468 44.8711 12.9163L44.1543 14.5868C44.036 14.8624 44.0658 15.1778 44.2333 15.4273C44.401 15.6769 44.6844 15.8272 44.9883 15.8282L50.846 15.8455Z" fill="#293DF2"/>
<path d="M9.68293 31.0404C9.18117 31.0404 8.7746 31.4405 8.7746 31.9341C8.7746 32.4276 9.18117 32.8277 9.68293 32.8277H12.3605L11.8603 35.8042C11.7784 36.2911 12.1134 36.7511 12.6083 36.8317C12.6585 36.8399 12.7083 36.8438 12.7575 36.8438C13.1939 36.8438 13.579 36.5334 13.6526 36.0958L14.2017 32.8279H16.393L15.8928 35.8043C15.8109 36.2912 16.1459 36.7513 16.6408 36.8318C16.691 36.84 16.7408 36.844 16.79 36.844C17.2265 36.844 17.6115 36.5336 17.6851 36.0959L18.2342 32.828H21.8788C22.3806 32.828 22.7872 32.4278 22.7872 31.9343C22.7872 31.4407 22.3806 31.0406 21.8788 31.0406H18.5346L18.901 28.8605H21.8788C22.3806 28.8605 22.7872 28.4604 22.7872 27.9668C22.7872 27.4733 22.3806 27.0731 21.8788 27.0731H19.2013L19.7015 24.0967C19.7834 23.6098 19.4484 23.1497 18.9535 23.0692C18.458 22.9884 17.991 23.3182 17.9092 23.8051L17.3601 27.073H15.1688L15.669 24.0966C15.7508 23.6097 15.4159 23.1496 14.921 23.0691C14.4249 22.9883 13.9586 23.3181 13.8767 23.805L13.3275 27.0729H9.68293C9.18117 27.0729 8.7746 27.473 8.7746 27.9666C8.7746 28.4601 9.18117 28.8603 9.68293 28.8603H13.0272L12.6608 31.0404H9.68293ZM14.8686 28.8603H17.0598L16.6935 31.0404H14.5022L14.8686 28.8603Z" fill="#293DF2"/>
<path d="M31.8389 44.5884C31.1055 43.9943 30.1297 43.7599 29.1509 43.9941C27.8965 44.2938 26.6308 45.4474 26.6308 47.3491C26.6308 48.5327 27.0698 49.56 27.973 50.49C28.7106 51.2496 29.7752 51.9719 31.4245 52.8322C31.5576 52.9017 31.7038 52.9364 31.85 52.9364C31.9961 52.9364 32.1423 52.9017 32.2754 52.8322C35.1528 51.3314 37.069 49.8247 37.069 47.3491C37.069 45.4371 35.7583 44.2952 34.4593 44.0117C33.4834 43.7987 32.5373 44.0248 31.8389 44.5884ZM35.2522 47.3491C35.2522 48.6844 34.352 49.6718 31.8498 51.027C29.3477 49.6717 28.4473 48.6842 28.4473 47.3491C28.4473 46.3555 29.0321 45.8618 29.5794 45.7309C29.6803 45.7068 29.7883 45.6933 29.8993 45.6933C30.311 45.6933 30.7636 45.8803 31.0426 46.4126C31.2017 46.7155 31.5231 46.9033 31.8679 46.8963C32.2141 46.8895 32.5265 46.6895 32.6729 46.3807C32.9669 45.7608 33.585 45.6518 34.0656 45.7568C34.6394 45.8818 35.2522 46.3659 35.2522 47.3491Z" fill="#293DF2"/>
</g>
<defs>
<clipPath id="clip0">
<rect width="62" height="61" fill="white"/>
</clipPath>
</defs>
</svg>
