<svg width="46" height="45" viewBox="0 0 46 45" fill="none" xmlns="http://www.w3.org/2000/svg">
<path d="M41.5078 3.86719H37.2252V2.63672C37.2252 1.18283 36.0161 0 34.5299 0C33.0437 0 31.8346 1.18283 31.8346 2.63672V3.86719H16.7409V2.63672C16.7409 1.18283 15.5317 0 14.0455 0C12.5593 0 11.3502 1.18283 11.3502 2.63672V3.89971C11.2739 3.87905 11.1938 3.86719 11.1107 3.86719H7.53097C5.05398 3.86719 3.03879 5.83857 3.03879 8.26172V23.2324C3.03879 23.7178 3.44111 24.1113 3.93722 24.1113C4.43334 24.1113 4.83566 23.7178 4.83566 23.2324V12.9199H37.2252C37.7213 12.9199 38.1237 12.5264 38.1237 12.041C38.1237 11.5556 37.7213 11.1621 37.2252 11.1621H4.83566V8.26172C4.83566 6.80783 6.04478 5.625 7.53097 5.625H11.1107C11.1938 5.625 11.2739 5.61305 11.3502 5.59248V6.72363C11.3502 8.17752 12.5593 9.36035 14.0455 9.36035C15.5317 9.36035 16.7409 8.17752 16.7409 6.72363V5.625H31.8346V6.72363C31.8346 8.17752 33.0437 9.36035 34.5299 9.36035C36.0161 9.36035 37.2252 8.17752 37.2252 6.72363V5.625H41.5078C42.994 5.625 44.2031 6.80783 44.2031 8.26172V41.6596C44.2031 42.5322 43.4775 43.2422 42.5854 43.2422C41.6933 43.2422 40.9677 42.5322 40.9677 41.6596V39.386C40.9677 38.9006 40.5654 38.5071 40.0692 38.5071H29.6185C29.1224 38.5071 28.7201 38.9006 28.7201 39.386C28.7201 39.8714 29.1224 40.2649 29.6185 40.2649H39.1708V41.6596C39.1708 42.2319 39.3189 42.7708 39.5791 43.2422H3.41406C2.52236 43.2422 1.79688 42.5325 1.79688 41.6602V40.2649H21.9062C22.4023 40.2649 22.8046 39.8714 22.8046 39.386C22.8046 38.9006 22.4023 38.5071 21.9062 38.5071H12.9293C14.4993 37.1844 15.4962 35.228 15.4962 33.0469C15.4962 29.0729 12.1913 25.8398 8.12897 25.8398C4.06669 25.8398 0.761785 29.0729 0.761785 33.0469C0.761785 35.228 1.75869 37.1844 3.32862 38.5071H0.898438C0.40232 38.5071 0 38.9006 0 39.386V41.6602C0 43.5017 1.53157 45 3.41406 45H42.5854C44.4682 45 46 43.5016 46 41.6596V8.26172C46 5.83857 43.9848 3.86719 41.5078 3.86719ZM14.944 6.72363C14.944 7.20826 14.5409 7.60254 14.0455 7.60254C13.5501 7.60254 13.1471 7.20826 13.1471 6.72363V2.63672C13.1471 2.15209 13.5501 1.75781 14.0455 1.75781C14.5409 1.75781 14.944 2.15209 14.944 2.63672V6.72363ZM35.4284 6.72363C35.4284 7.20826 35.0253 7.60254 34.5299 7.60254C34.0345 7.60254 33.6315 7.20826 33.6315 6.72363V2.63672C33.6315 2.15209 34.0345 1.75781 34.5299 1.75781C35.0253 1.75781 35.4284 2.15209 35.4284 2.63672V6.72363ZM2.55866 33.0469C2.55866 30.0422 5.05748 27.5977 8.12897 27.5977C11.2005 27.5977 13.6993 30.0422 13.6993 33.0469C13.6993 36.0516 11.2005 38.4961 8.12897 38.4961C5.05748 38.4961 2.55866 36.0516 2.55866 33.0469Z" fill="#261746"/>
<path d="M42.0746 11.4196C41.9076 11.2562 41.6758 11.1621 41.4395 11.1621C41.2031 11.1621 40.9714 11.2562 40.8043 11.4196C40.6372 11.5831 40.5411 11.8099 40.5411 12.041C40.5411 12.2722 40.6371 12.4989 40.8043 12.6624C40.9715 12.8259 41.2031 12.9199 41.4395 12.9199C41.6758 12.9199 41.9076 12.8259 42.0746 12.6624C42.2417 12.4989 42.338 12.2722 42.338 12.041C42.338 11.8099 42.2418 11.5831 42.0746 11.4196Z" fill="#293DF2"/>
<path d="M26.8317 38.7642C26.6647 38.6007 26.4329 38.5076 26.1966 38.5076C25.9603 38.5076 25.7285 38.6007 25.5614 38.7642C25.3943 38.9286 25.2982 39.1544 25.2982 39.3856C25.2982 39.6176 25.3942 39.8435 25.5614 40.0079C25.7285 40.1713 25.9603 40.2645 26.1966 40.2645C26.4329 40.2645 26.6647 40.1713 26.8317 40.0079C26.9988 39.8435 27.095 39.6167 27.095 39.3856C27.095 39.1544 26.9989 38.9286 26.8317 38.7642Z" fill="#293DF2"/>
<path d="M20.3267 26.7188C18.4442 26.7188 16.9127 28.217 16.9127 30.0586C16.9127 31.9002 18.4442 33.3984 20.3267 33.3984C22.2092 33.3984 23.7408 31.9002 23.7408 30.0586C23.7408 28.217 22.2092 26.7188 20.3267 26.7188ZM20.3267 31.6406C19.435 31.6406 18.7095 30.9309 18.7095 30.0586C18.7095 29.1863 19.435 28.4766 20.3267 28.4766C21.2184 28.4766 21.9439 29.1863 21.9439 30.0586C21.9439 30.9309 21.2184 31.6406 20.3267 31.6406Z" fill="#293DF2"/>
<path d="M28.7121 26.7188C26.8296 26.7188 25.298 28.217 25.298 30.0586C25.298 31.9002 26.8296 33.3984 28.7121 33.3984C30.5946 33.3984 32.1262 31.9002 32.1262 30.0586C32.1262 28.217 30.5946 26.7188 28.7121 26.7188ZM28.7121 31.6406C27.8204 31.6406 27.0949 30.9309 27.0949 30.0586C27.0949 29.1863 27.8204 28.4766 28.7121 28.4766C29.6038 28.4766 30.3293 29.1863 30.3293 30.0586C30.3293 30.9309 29.6038 31.6406 28.7121 31.6406Z" fill="#293DF2"/>
<path d="M37.0975 26.7188C35.215 26.7188 33.6835 28.217 33.6835 30.0586C33.6835 31.9002 35.215 33.3984 37.0975 33.3984C38.98 33.3984 40.5116 31.9002 40.5116 30.0586C40.5116 28.217 38.98 26.7188 37.0975 26.7188ZM37.0975 31.6406C36.2058 31.6406 35.4803 30.9309 35.4803 30.0586C35.4803 29.1863 36.2058 28.4766 37.0975 28.4766C37.9892 28.4766 38.7147 29.1863 38.7147 30.0586C38.7147 30.9309 37.9892 31.6406 37.0975 31.6406Z" fill="#293DF2"/>
<path d="M11.9413 17.5781C10.0588 17.5781 8.52722 19.0764 8.52722 20.918C8.52722 22.7595 10.0588 24.2578 11.9413 24.2578C13.8238 24.2578 15.3553 22.7595 15.3553 20.918C15.3553 19.0764 13.8238 17.5781 11.9413 17.5781ZM11.9413 22.5C11.0496 22.5 10.3241 21.7903 10.3241 20.918C10.3241 20.0457 11.0496 19.3359 11.9413 19.3359C12.833 19.3359 13.5585 20.0457 13.5585 20.918C13.5585 21.7903 12.833 22.5 11.9413 22.5Z" fill="#261746"/>
<path d="M28.7121 17.5781C26.8296 17.5781 25.298 19.0764 25.298 20.918C25.298 22.7595 26.8296 24.2578 28.7121 24.2578C30.5946 24.2578 32.1262 22.7595 32.1262 20.918C32.1262 19.0764 30.5946 17.5781 28.7121 17.5781ZM28.7121 22.5C27.8204 22.5 27.0949 21.7903 27.0949 20.918C27.0949 20.0457 27.8204 19.3359 28.7121 19.3359C29.6038 19.3359 30.3293 20.0457 30.3293 20.918C30.3293 21.7903 29.6038 22.5 28.7121 22.5Z" fill="#261746"/>
<path d="M37.0975 17.5781C35.215 17.5781 33.6835 19.0764 33.6835 20.918C33.6835 22.7595 35.215 24.2578 37.0975 24.2578C38.98 24.2578 40.5116 22.7595 40.5116 20.918C40.5116 19.0764 38.98 17.5781 37.0975 17.5781ZM37.0975 22.5C36.2058 22.5 35.4803 21.7903 35.4803 20.918C35.4803 20.0457 36.2058 19.3359 37.0975 19.3359C37.9892 19.3359 38.7147 20.0457 38.7147 20.918C38.7147 21.7903 37.9892 22.5 37.0975 22.5Z" fill="#261746"/>
<path d="M20.3267 17.5781C18.4442 17.5781 16.9127 19.0764 16.9127 20.918C16.9127 22.7595 18.4442 24.2578 20.3267 24.2578C22.2092 24.2578 23.7408 22.7595 23.7408 20.918C23.7408 19.0764 22.2092 17.5781 20.3267 17.5781ZM20.3267 22.5C19.435 22.5 18.7095 21.7903 18.7095 20.918C18.7095 20.0457 19.435 19.3359 20.3267 19.3359C21.2184 19.3359 21.9439 20.0457 21.9439 20.918C21.9439 21.7903 21.2184 22.5 20.3267 22.5Z" fill="#261746"/>
<path d="M11.3297 30.9049C10.9787 30.5617 10.41 30.5617 10.059 30.9049L7.13315 33.7672L6.13328 32.7891C5.78235 32.4459 5.21364 32.4459 4.86262 32.7891C4.51178 33.1323 4.51178 33.6888 4.86262 34.0321L6.49786 35.6316C6.66641 35.7964 6.89488 35.8891 7.13315 35.8891C7.37141 35.8891 7.59989 35.7964 7.76843 35.6316L11.3297 32.1478C11.6805 31.8046 11.6805 31.2481 11.3297 30.9049Z" fill="#293DF2"/>
</svg>
