<svg width="62" height="53" viewBox="0 0 62 53" fill="none" xmlns="http://www.w3.org/2000/svg">
<path d="M54.7005 20.2942C52.5908 19.2574 48.6352 19.2454 48.4679 19.2454C47.9663 19.2454 47.5597 19.6451 47.5597 20.1382C47.5597 20.6313 47.9663 21.031 48.4679 21.031C49.4886 21.0311 52.4521 21.1856 53.8882 21.8914C54.0186 21.9556 54.1571 21.9858 54.2936 21.9858C54.6267 21.9858 54.9475 21.8049 55.1066 21.4922C55.331 21.0511 55.1491 20.5148 54.7005 20.2942Z" fill="#293DF2"/>
<path d="M59.2284 33.0055L55.4775 31.952C55.3156 31.9065 55.2025 31.7591 55.2025 31.5935V30.3627C55.5077 30.1549 55.7988 29.9223 56.0709 29.6626C57.3896 28.4046 58.1158 26.7172 58.1158 24.911V23.2126L58.4785 22.4997C58.8765 21.717 59.0868 20.8407 59.0868 19.9657V15.3647C59.0868 14.8717 58.6802 14.4719 58.1786 14.4719H49.4389C46.261 14.4719 43.6754 17.0137 43.6754 20.1379V20.1911C43.6754 20.9187 43.8503 21.6474 44.1813 22.298L44.6464 23.2125V24.6708C44.6464 26.9819 45.8049 29.0555 47.5597 30.3033L47.5599 31.5933C47.5599 31.7922 47.5599 31.8746 46.81 32.0853L44.9798 32.5993L39.6855 30.7068C39.7045 30.4612 39.6202 30.2114 39.4379 30.0232L37.7461 28.2759V25.3427C37.925 25.1978 38.1013 25.049 38.2722 24.8916C40.4064 22.925 41.6305 20.1485 41.6305 17.274V14.9314C42.2749 13.5528 42.6015 12.0939 42.6015 10.5915V1.04541C42.6015 0.552334 42.1949 0.152588 41.6933 0.152588H28.0982C23.3138 0.152588 19.4215 3.97911 19.4215 8.68238V10.5917C19.4215 12.0941 19.7481 13.553 20.3926 14.9317V16.9472C20.3926 20.2847 21.9021 23.2915 24.2769 25.2738V28.276L22.5851 30.0233C22.4028 30.2115 22.3185 30.4613 22.3376 30.7069L16.7497 32.7043C16.3448 32.8491 15.9685 33.0451 15.6269 33.2826L14.7495 32.8513C17.3615 31.7336 18.1889 30.1617 18.2286 30.0836C18.3565 29.8323 18.3565 29.5363 18.2286 29.285C17.5739 27.9977 17.4945 25.6381 17.4308 23.7423C17.4096 23.1111 17.3895 22.5148 17.3512 21.9839C17.0415 17.7014 13.7299 14.4719 9.64778 14.4719C5.56571 14.4719 2.25392 17.7013 1.9444 21.9839C1.90602 22.5149 1.88591 23.1112 1.86472 23.7425C1.80103 25.6383 1.72159 27.9976 1.06696 29.2849C0.939082 29.5362 0.939082 29.8322 1.06696 30.0835C1.10668 30.1615 1.93241 31.7303 4.54961 32.8493L2.11236 34.0472C0.809391 34.6882 0 35.9756 0 37.4076V44.0036C0 44.4967 0.406633 44.8964 0.908203 44.8964C1.40977 44.8964 1.81641 44.4967 1.81641 44.0036V37.4076C1.81641 36.6562 2.24108 35.9806 2.92466 35.6445L5.95963 34.1528L7.01532 35.1391C7.75351 35.8287 8.70046 36.1733 9.64778 36.1733C10.5949 36.1733 11.5423 35.8285 12.2802 35.1391L13.3358 34.1529L14.3254 34.6393C13.8594 35.3723 13.595 36.2318 13.595 37.1321V44.0039C13.595 44.4969 14.0016 44.8967 14.5032 44.8967C15.0047 44.8967 15.4114 44.4969 15.4114 44.0039V37.1321C15.4114 35.9064 16.1986 34.8015 17.3704 34.3826L23.2619 32.2766L25.7144 35.8932C26.0279 36.3556 26.5303 36.6521 27.0928 36.7069C27.1555 36.713 27.2179 36.7159 27.2801 36.7159C27.7764 36.7159 28.2517 36.5239 28.6069 36.1748L30.1032 34.7039V44.004C30.1032 44.4971 30.5098 44.8968 31.0114 44.8968C31.513 44.8968 31.9196 44.4971 31.9196 44.004V34.7039L33.4158 36.1748C33.771 36.524 34.2463 36.7161 34.7426 36.7161C34.8048 36.7161 34.8672 36.7131 34.9299 36.707C35.4925 36.6522 35.9949 36.3557 36.3084 35.8933L38.761 32.2768L44.6524 34.3828C45.8241 34.8017 46.6114 35.9067 46.6114 37.1323V44.0041C46.6114 44.4972 47.018 44.8969 47.5196 44.8969C48.0212 44.8969 48.4278 44.4972 48.4278 44.0041V37.1323C48.4278 35.891 47.9261 34.7267 47.0845 33.8657L47.3089 33.8027C47.5352 33.7391 47.844 33.6521 48.154 33.5027L50.4728 35.7823V44.0041C50.4728 44.4972 50.8795 44.8969 51.3811 44.8969C51.8826 44.8969 52.2893 44.4972 52.2893 44.0041V35.7823L54.592 33.5186C54.7144 33.5797 54.843 33.6314 54.9784 33.6694L58.7294 34.7229C59.5855 34.9634 60.1836 35.7428 60.1836 36.6182V44.0041C60.1836 44.4972 60.5902 44.8969 61.0918 44.8969C61.5934 44.8969 62 44.4972 62 44.0041V36.6182C62 34.9495 60.8603 33.4639 59.2284 33.0055ZM5.82643 31.4285C4.1276 30.8276 3.27546 30.0264 2.9117 29.5889C3.1597 28.9516 3.32051 28.2216 3.42937 27.4511C3.93022 28.6316 4.76904 29.6394 5.82643 30.3584V31.4285ZM11.0292 33.8449C10.2546 34.5684 9.0411 34.5683 8.26671 33.8447L7.42208 33.0557C7.56461 32.7932 7.64295 32.4956 7.64295 32.1838V31.2322C8.27652 31.4268 8.95004 31.5318 9.64802 31.5318C10.3452 31.5318 11.0183 31.4264 11.653 31.2328L11.6529 32.1837C11.6529 32.4956 11.7311 32.7933 11.8737 33.056L11.0292 33.8449ZM9.64827 29.7462C6.93625 29.7462 4.73004 27.5772 4.73004 24.9113C4.73004 24.4182 4.32341 24.0184 3.82184 24.0184C3.77098 24.0184 3.72133 24.0236 3.67277 24.0315C3.67544 23.9548 3.67798 23.8779 3.68064 23.8018C3.70087 23.1879 3.72036 22.608 3.75633 22.1107C3.87234 20.5064 4.52443 19.0282 5.59247 17.948C6.67009 16.858 8.11038 16.2578 9.64802 16.2578C11.1857 16.2578 12.6258 16.858 13.7036 17.948C14.7716 19.0282 15.4237 20.5064 15.5397 22.1107C15.5756 22.6079 15.5952 23.1876 15.6158 23.8014C15.6176 23.8542 15.6194 23.9076 15.6212 23.9607C14.6331 22.4641 13.1071 21.3612 11.1353 20.7383C9.31368 20.163 7.74697 20.1986 7.68086 20.2003C7.44303 20.2068 7.21731 20.3047 7.05226 20.473L5.41362 22.1436C5.06547 22.4986 5.07589 23.0638 5.43699 23.4061C5.79809 23.7483 6.37304 23.738 6.72119 23.3831L8.0847 21.9931C9.25895 22.0495 13.0367 22.4814 14.5059 25.6618C14.1362 28.0056 12.0871 29.7462 9.64827 29.7462ZM13.4691 31.4315L13.4693 30.3667C14.5258 29.6516 15.3658 28.6456 15.867 27.4562C15.9759 28.225 16.1366 28.9533 16.3841 29.5892C16.0224 30.0225 15.1663 30.8308 13.4691 31.4315ZM22.209 16.9471V14.7319C22.209 14.5975 22.1781 14.4648 22.1186 14.3437C21.5342 13.154 21.2379 11.8917 21.2379 10.5917V8.6825C21.2379 4.96371 24.3155 1.93835 28.0982 1.93835H40.7851V10.5918C40.7851 11.8918 40.4888 13.1541 39.9044 14.3438C39.8449 14.4649 39.814 14.5976 39.814 14.732V17.2742C39.814 19.6921 38.8253 21.9347 37.03 23.5891C36.8058 23.7955 36.5732 23.989 36.3327 24.1694C36.3274 24.173 36.3223 24.1769 36.3171 24.1806C34.6352 25.4359 32.5752 26.046 30.4238 25.909C25.8173 25.6158 22.209 21.6793 22.209 16.9471ZM27.3226 34.912C27.3163 34.9181 27.3017 34.9328 27.272 34.9297C27.2425 34.9268 27.2308 34.9098 27.2259 34.9024L24.4014 30.7374L25.3103 29.7985L29.5952 32.6778L27.3226 34.912ZM31.0115 31.4665L26.0933 28.1616V26.495C27.3659 27.1713 28.7908 27.5943 30.3063 27.6907C30.5457 27.7059 30.7836 27.7134 31.0208 27.7134C32.7574 27.7134 34.4288 27.3053 35.9297 26.5307V28.1616L31.0115 31.4665ZM34.7971 34.9027C34.7922 34.91 34.7805 34.9271 34.751 34.9299C34.7213 34.9336 34.7068 34.9183 34.7004 34.9122L32.4278 32.6781L36.7127 29.7987L37.6218 30.7376L34.7971 34.9027ZM51.3811 34.1494L49.32 32.1234C49.356 31.9628 49.3763 31.787 49.3762 31.593L49.3761 31.2163C49.948 31.4008 50.5508 31.5103 51.1746 31.5286C51.2446 31.5308 51.314 31.5317 51.3837 31.5317C52.073 31.5317 52.7458 31.4294 53.3861 31.234V31.5935C53.3861 31.7716 53.4089 31.9461 53.4517 32.1138L51.3811 34.1494ZM54.8059 28.3813C53.8434 29.2996 52.5718 29.7845 51.2292 29.7438C48.601 29.6663 46.4628 27.3906 46.4628 24.671V23.0019C46.4628 22.8633 46.43 22.7266 46.3669 22.6027L45.8059 21.4996C45.6004 21.0955 45.4918 20.6431 45.4918 20.1912V20.138C45.4918 17.9983 47.2625 16.2577 49.4389 16.2577H57.2704V19.9659C57.2704 20.5651 57.1263 21.1652 56.8538 21.7013L56.3953 22.6027C56.3322 22.7267 56.2994 22.8633 56.2994 23.0019V24.9111C56.2994 26.2301 55.769 27.4625 54.8059 28.3813Z" fill="#261746"/>
<path d="M57.2075 37.3831C56.7059 37.3831 56.2993 37.7828 56.2993 38.2759V44.0036C56.2993 44.4967 56.7059 44.8965 57.2075 44.8965C57.7091 44.8965 58.1157 44.4967 58.1157 44.0036V38.2759C58.1157 37.7829 57.7091 37.3831 57.2075 37.3831Z" fill="#293DF2"/>
<path d="M4.79248 38.5635C4.29091 38.5635 3.88428 38.9632 3.88428 39.4563V44.0039C3.88428 44.4969 4.29091 44.8967 4.79248 44.8967C5.29405 44.8967 5.70068 44.4969 5.70068 44.0039V39.4563C5.70068 38.9633 5.29405 38.5635 4.79248 38.5635Z" fill="#293DF2"/>
<path d="M38.4511 10.9153C35.0162 7.53852 27.8294 8.18409 24.8987 8.61836C23.9756 8.75514 23.3057 9.52308 23.3057 10.4444V12.5012C23.3057 12.9943 23.7123 13.394 24.2139 13.394C24.7154 13.394 25.1221 12.9943 25.1221 12.5012V10.4442C25.1221 10.4139 25.1424 10.3879 25.1695 10.3839C26.3402 10.2104 28.6631 9.94283 31.0698 10.1006C33.902 10.2859 35.9533 10.9848 37.1668 12.1779C37.5215 12.5265 38.0965 12.5265 38.4511 12.1779C38.8058 11.8292 38.8058 11.2639 38.4511 10.9153Z" fill="#293DF2"/>
<path d="M20.3297 39.2925C19.8281 39.2925 19.4215 39.6922 19.4215 40.1853V44.0038C19.4215 44.4969 19.8281 44.8967 20.3297 44.8967C20.8313 44.8967 21.2379 44.4969 21.2379 44.0038V40.1853C21.2379 39.6923 20.8313 39.2925 20.3297 39.2925Z" fill="#293DF2"/>
<path d="M41.6933 39.2925C41.1917 39.2925 40.7851 39.6922 40.7851 40.1853V44.0038C40.7851 44.4969 41.1917 44.8967 41.6933 44.8967C42.1949 44.8967 42.6015 44.4969 42.6015 44.0038V40.1853C42.6015 39.6923 42.1949 39.2925 41.6933 39.2925Z" fill="#293DF2"/>
</svg>
