<svg width="56" height="56" viewBox="0 0 56 56" fill="none" xmlns="http://www.w3.org/2000/svg">
<g clip-path="url(#clip0)">
<path d="M43.5932 16.1402C42.672 15.219 38.3469 14.9698 34.5333 14.9334V14C34.5302 11.424 32.4427 9.33646 29.8667 9.33337H26.1333C23.5573 9.33646 21.4697 11.424 21.4667 14V14.9334C17.6531 14.966 13.328 15.2134 12.4068 16.1364C11.2719 17.2714 6.79933 27.301 5.87346 28.2698C2.67026 31.6242 0.933327 34.2851 0.933327 36.4C0.933327 39.215 1.86666 41.2702 1.86666 43.8667V52.2667C1.86666 54.3286 3.53813 56 5.59999 56H7.46666C9.52852 56 11.2 54.3286 11.2 52.2667V50.6586C20.6985 52.7987 35.2651 52.8052 44.8 50.6586V52.2667C44.8 54.3286 46.4715 56 48.5333 56H50.4C52.4619 56 54.1333 54.3286 54.1333 52.2667V43.8667C54.1333 41.3038 55.0667 39.2271 55.0667 36.4C55.0667 34.2851 53.3307 31.6232 50.1312 28.28C49.1867 27.286 44.7235 17.2667 43.5932 16.1402ZM52.752 39.9467C52.1117 43.1415 52.2667 42.7299 52.2667 52.2667C52.2667 53.2976 51.4309 54.1334 50.4 54.1334H48.5333C47.5024 54.1334 46.6667 53.2976 46.6667 52.2667V49.4667C46.6664 49.1741 46.529 48.8985 46.2954 48.7223C46.0618 48.546 45.759 48.4896 45.4776 48.5698C45.4123 48.5875 38.9433 50.4 28 50.4C17.0856 50.4 10.5868 48.5875 10.5224 48.5688C10.2408 48.4886 9.93789 48.5452 9.70423 48.7216C9.47057 48.8981 9.33325 49.1739 9.33333 49.4667V52.2667C9.33333 53.2976 8.49759 54.1334 7.46666 54.1334H5.59999C4.56906 54.1334 3.73333 53.2976 3.73333 52.2667C3.73333 42.477 3.86119 43.009 3.24799 39.9467C2.97621 38.7832 2.82607 37.5946 2.79999 36.4C2.79999 35.4984 3.37026 33.4134 7.19319 29.5932C8.27399 28.5124 12.8809 18.4016 13.6743 17.5038C14.3733 17.0698 18.7507 16.8 22.4 16.8C22.9155 16.8 23.3333 16.3822 23.3333 15.8667V14C23.3333 12.4536 24.5869 11.2 26.1333 11.2H29.8667C31.4131 11.2 32.6667 12.4536 32.6667 14V15.8667C32.6667 16.3822 33.0845 16.8 33.6 16.8C37.2493 16.8 41.6267 17.0698 42.2688 17.4534C43.1956 18.466 47.6765 28.4611 48.8068 29.5914C52.6297 33.4134 53.2 35.4984 53.2 36.4C53.1739 37.5946 53.0238 38.7832 52.752 39.9467Z" fill="#261746"/>
<path d="M40.7223 7.71121C41.064 8.07421 41.6306 8.10457 42.0092 7.78017C42.3877 7.45578 42.4445 6.89115 42.1381 6.49787C38.5967 2.37561 33.4327 0.00402832 27.9981 0.00402832C22.5635 0.00402832 17.3995 2.37561 13.8581 6.49787C13.5517 6.89115 13.6085 7.45578 13.9871 7.78017C14.3656 8.10457 14.9323 8.07421 15.274 7.71121C18.4605 4.00112 23.1075 1.86657 27.9981 1.86657C32.8888 1.86657 37.5358 4.00112 40.7223 7.71121Z" fill="#261746"/>
<path d="M17.1584 9.82799C16.9482 10.0869 16.892 10.4383 17.0111 10.7499C17.1302 11.0614 17.4065 11.2857 17.7359 11.3383C18.0652 11.3909 18.3976 11.2638 18.6079 11.0049C20.9054 8.1761 24.3557 6.53352 28 6.53352C31.6443 6.53352 35.0945 8.1761 37.3921 11.0049C37.6024 11.2638 37.9348 11.3909 38.2641 11.3383C38.5935 11.2857 38.8697 11.0614 38.9888 10.7499C39.108 10.4383 39.0518 10.0869 38.8416 9.82799C36.1894 6.56269 32.2067 4.66669 28 4.66669C23.7933 4.66669 19.8106 6.56269 17.1584 9.82799Z" fill="#261746"/>
<path d="M28 18.6666C29.5464 18.6666 30.8 17.413 30.8 15.8667C30.8 14.3203 29.5464 13.0667 28 13.0667C26.4536 13.0667 25.2 14.3203 25.2 15.8667C25.2 17.413 26.4536 18.6666 28 18.6666ZM28 14.9333C28.5155 14.9333 28.9333 15.3512 28.9333 15.8667C28.9333 16.3821 28.5155 16.8 28 16.8C27.4845 16.8 27.0667 16.3821 27.0667 15.8667C27.0667 15.3512 27.4845 14.9333 28 14.9333Z" fill="#261746"/>
<path d="M14.5124 34.5268C12.0243 34.4881 9.54389 34.2384 7.09799 33.7802C6.17912 33.5872 5.2599 34.1067 4.95133 34.9935C4.43515 36.3379 4.60761 37.8496 5.41333 39.0432C7.12599 41.4699 11.4735 42 14.4499 42C15.1614 42.0017 15.8124 41.5999 16.1299 40.9631C17.0219 39.2626 17.0219 37.2325 16.1299 35.532C15.8112 34.93 15.1933 34.5459 14.5124 34.5268ZM14.4499 40.1268C10.5971 40.0662 5.42826 39.2271 6.72559 35.6086C9.29033 36.0592 11.8837 36.3284 14.4863 36.414C15.0995 37.5812 15.0858 38.9784 14.4499 40.1334V40.1268Z" fill="#261746"/>
<path d="M41.4876 34.5268C40.8081 34.5455 40.1909 34.9275 39.8711 35.5274C38.979 37.2278 38.979 39.258 39.8711 40.9584C40.1944 41.6037 40.8574 42.008 41.5791 42C46.2243 41.9263 49.2548 40.9332 50.5867 39.047C51.3927 37.8527 51.5645 36.34 51.0468 34.9954C50.7403 34.1069 49.8194 33.5864 48.9001 33.782C46.4539 34.2331 43.9747 34.4822 41.4876 34.5268ZM49.28 35.588C50.526 39.2719 45.4207 40.068 41.5492 40.1362C40.9278 38.967 40.9223 37.5667 41.5343 36.3926C44.1346 36.3484 46.7261 36.0792 49.28 35.588Z" fill="#261746"/>
<path d="M28 20.5333C21.8144 20.5333 16.8 25.5477 16.8 31.7333C16.8 37.9189 21.8144 42.9333 28 42.9333C34.1856 42.9333 39.2 37.9189 39.2 31.7333C39.1933 25.5505 34.1828 20.54 28 20.5333ZM28 41.0667C22.8453 41.0667 18.6667 36.888 18.6667 31.7333C18.6667 26.5787 22.8453 22.4 28 22.4C33.1547 22.4 37.3333 26.5787 37.3333 31.7333C37.3277 36.8856 33.1523 41.061 28 41.0667Z" fill="#293DF2"/>
<path d="M35.4667 30.8H32.6667C32.3729 30.8 32.0963 30.9383 31.92 31.1733L30.0263 33.6933L26.9733 27.5828C26.8294 27.2912 26.544 27.0955 26.2201 27.0663C25.8961 27.0372 25.5804 27.1788 25.3867 27.44L22.8667 30.8H20.5333C20.0179 30.8 19.6 31.2179 19.6 31.7333C19.6 32.2488 20.0179 32.6667 20.5333 32.6667H23.3333C23.6271 32.6667 23.9037 32.5284 24.08 32.2933L25.9737 29.7733L29.0313 35.8885C29.1768 36.1775 29.4615 36.3706 29.7838 36.3987C30.1061 36.4268 30.42 36.2861 30.6133 36.0267L33.1333 32.6667H35.4667C35.9821 32.6667 36.4 32.2488 36.4 31.7333C36.4 31.2179 35.9821 30.8 35.4667 30.8Z" fill="#293DF2"/>
</g>
<defs>
<clipPath id="clip0">
<rect width="56" height="56" fill="white"/>
</clipPath>
</defs>
</svg>




