<svg width="41" height="41" viewBox="0 0 41 41" fill="none" xmlns="http://www.w3.org/2000/svg">
    <path d="M37.0175 32.2537C36.5731 29.5894 34.7049 27.4032 32.1424 26.5488L26.452 24.6522V23.8064H25.1294V24.8949C24.7631 25.2996 23.4623 26.4516 20.5004 26.4516C17.5385 26.4516 16.2377 25.2996 15.8714 24.8949V23.8064H14.5488V24.6522L8.85906 26.5488C6.29656 27.4032 4.42841 29.5894 3.98402 32.2537L2.52588 40.9999H38.4743L37.0175 32.2537ZM4.08785 39.6774L4.30012 38.4011L8.69572 38.9506C8.74069 39.2283 8.79756 39.4691 8.8617 39.6774H4.08785ZM8.60248 37.6069L4.51769 37.0963L5.28809 32.4719C5.6518 30.2917 7.18004 28.5029 9.27699 27.8039L9.32262 27.7887L9.90059 33.567C9.55143 34.1477 8.6329 35.8445 8.60248 37.6069ZM30.722 39.6774H10.2788C10.1353 39.3904 9.91977 38.7833 9.91977 37.6935C9.91977 35.9404 11.1193 34.1106 11.1319 34.0921L11.2622 33.895L10.6088 27.3602L15.0024 25.8954C15.6551 26.5501 17.3024 27.7741 20.5004 27.7741C23.6984 27.7741 25.3457 26.5501 25.9984 25.8954L30.3913 27.3602L29.738 33.8957L29.8689 34.0928C29.8821 34.1106 31.0811 35.9298 31.0811 37.6935C31.0811 38.7833 30.8655 39.3904 30.722 39.6774ZM31.6782 27.7887L31.7238 27.8039C33.8208 28.5029 35.349 30.2917 35.7127 32.4719L36.4831 37.0963L32.3983 37.6069C32.3686 35.8452 31.4501 34.1477 31.1002 33.567L31.6782 27.7887ZM32.1398 39.6774C32.2039 39.4691 32.2601 39.2283 32.3058 38.9506L36.7014 38.4011L36.913 39.6774H32.1398Z" fill="#261746"/>
    <path d="M12.196 17.8178C12.5333 18.9784 13.1562 20.0424 14.0344 20.9206L16.6128 23.4996C17.237 24.1239 18.0676 24.4677 18.9511 24.4677H22.0499C22.9334 24.4677 23.764 24.1239 24.3882 23.4996L26.9666 20.9206C27.8448 20.0424 28.467 18.9777 28.805 17.8178C30.4529 17.6313 31.7424 16.2453 31.7424 14.5484C31.7424 13.5055 31.2431 12.5268 30.4198 11.9065V6.15794C30.4198 2.76287 27.657 0 24.2619 0H16.7391C13.344 0 10.5811 2.76287 10.5811 6.15794V11.9065C9.75782 12.5268 9.25854 13.5055 9.25854 14.5484C9.25854 16.2453 10.5481 17.6313 12.196 17.8178ZM27.7747 15.7771C27.7747 17.3668 27.155 18.8613 26.0315 19.9855L23.4531 22.5646C23.0782 22.9388 22.5802 23.1452 22.0499 23.1452H18.9511C18.4207 23.1452 17.9221 22.9388 17.5478 22.5646L14.9694 19.9855C13.8459 18.8613 13.2263 17.3668 13.2263 15.7771V13.7046C13.6303 13.811 14.0681 13.8871 14.5489 13.8871C15.5454 13.8871 16.2385 13.6027 16.9718 13.3019C17.8547 12.9388 18.7679 12.5645 20.5005 12.5645C22.2331 12.5645 23.1463 12.9388 24.0291 13.3019C24.7625 13.6027 25.4555 13.8871 26.4521 13.8871C26.9329 13.8871 27.3706 13.811 27.7747 13.7046V15.7771ZM26.4521 12.5645C25.7167 12.5645 25.1937 12.3496 24.5317 12.0778C23.6238 11.7055 22.4943 11.2419 20.5005 11.2419C18.5067 11.2419 17.3772 11.7055 16.4693 12.0778C15.8073 12.3496 15.2842 12.5645 14.5489 12.5645C13.4677 12.5645 12.6053 12.097 12.1252 11.7637C12.8613 10.8002 15.1288 8.59677 20.5005 8.59677C25.8794 8.59677 28.1463 10.8068 28.8777 11.7657C28.4022 12.099 27.5445 12.5645 26.4521 12.5645ZM30.4198 14.5484C30.4198 15.4206 29.8498 16.1553 29.0662 16.4198C29.0847 16.2076 29.0973 15.9933 29.0973 15.7771V13.1802C29.2606 13.0902 29.4061 13.0003 29.5364 12.9137C30.0793 13.2807 30.4198 13.8891 30.4198 14.5484ZM11.9037 6.15794C11.9037 3.49161 14.0727 1.32258 16.7391 1.32258H24.2612C26.9282 1.32258 29.0973 3.49161 29.0973 6.15794V10.0695C27.7449 8.82227 25.1388 7.27419 20.5005 7.27419C15.8622 7.27419 13.256 8.82227 11.9037 10.0695V6.15794ZM11.4646 12.913C11.5949 13.0003 11.7404 13.0896 11.9037 13.1795V15.7764C11.9037 15.9926 11.9163 16.2069 11.9348 16.4198C11.1512 16.1553 10.5811 15.4206 10.5811 14.5484C10.5811 13.8891 10.9224 13.2807 11.4646 12.913Z" fill="#293DF2"/>
    <path d="M26.673 32.583C26.5797 33.6113 25.7306 34.387 24.6977 34.387H16.3033C15.2703 34.387 14.4206 33.6113 14.3273 32.583L13.8849 27.7146L12.5676 27.8343L13.01 32.7034C13.1661 34.4168 14.5819 35.7096 16.3033 35.7096H24.697C26.419 35.7096 27.8342 34.4168 27.9903 32.7027L28.4327 27.8343L27.1154 27.7146L26.673 32.583Z" fill="#261746"/>
</svg>
