<svg width="74" height="74" viewBox="0 0 74 74" fill="none" xmlns="http://www.w3.org/2000/svg">
    <g clip-path="url(#clip0)">
        <path d="M73.9839 31.9959C73.9743 31.8766 73.9466 31.7592 73.9026 31.6484C73.8881 31.5923 73.8689 31.5381 73.846 31.4851C73.8388 31.4707 73.84 31.4544 73.8309 31.44C73.7538 31.3135 73.6545 31.2027 73.5376 31.1117C73.5274 31.1033 73.5226 31.0895 73.5117 31.081H73.5057L64.1328 23.9642V14.7961C64.1328 14.7738 64.1214 14.7551 64.1202 14.7329C64.1142 14.61 64.0895 14.4889 64.0473 14.3727C64.0389 14.3498 64.0365 14.3239 64.0268 14.3016C63.9768 14.186 63.9094 14.0794 63.8269 13.9843L55.193 4.11692C54.9129 3.75136 54.4528 3.57189 53.9993 3.65138C53.5458 3.73148 53.1748 4.0573 53.0363 4.49634C52.8984 4.93599 53.0164 5.41538 53.3428 5.74L60.1857 13.5627H51.7987V2.46193C51.7987 1.78078 51.2464 1.22852 50.5653 1.22852H11.0959C10.4148 1.22852 9.86251 1.78078 9.86251 2.46193V23.9642L0.488428 31.0774C0.476383 31.0871 0.470963 31.1015 0.460122 31.1117C0.343887 31.2015 0.24572 31.3111 0.169233 31.4358C0.1602 31.4508 0.161404 31.4671 0.154177 31.4815C0.131291 31.5345 0.112019 31.5887 0.0975651 31.6447C0.0529984 31.7556 0.025897 31.873 0.0162609 31.9922C0.0162609 32.0157 0 32.0368 0 32.0603V69.0664C0 70.1757 0.498064 71.2267 1.35688 71.9289C1.40385 71.9686 1.45685 71.9957 1.50624 72.0313L1.52551 72.0463C2.15426 72.5107 2.91431 72.763 3.69543 72.7666H70.2999C72.3416 72.7618 73.9953 71.108 74.0002 69.0664V32.0639C74.0002 32.0404 73.9851 32.0193 73.9839 31.9959ZM71.5333 69.0664C71.5333 69.1055 71.511 69.1405 71.5074 69.1796L45.2847 49.6045L71.5333 34.2164V69.0664ZM2.46201 69.0664V34.2164L28.7076 49.6027L2.48791 69.1796C2.4843 69.1405 2.46201 69.1055 2.46201 69.0664ZM30.2235 51.5516L31.6394 50.6242L31.6593 50.6109L34.9687 48.4398C36.2009 47.6322 37.7945 47.6322 39.0267 48.4398L42.3222 50.5995C42.3348 50.6091 42.3481 50.6175 42.3619 50.6254L43.7098 51.5101L68.8828 70.2998H5.11133L30.2235 51.5516ZM70.5565 31.9404L64.1328 35.6961V27.0622L70.5565 31.9404ZM49.3318 3.69535V14.7961C49.3318 15.4772 49.8841 16.0295 50.5653 16.0295H61.666V37.1421L42.9943 48.0887L40.3793 46.3741C38.3262 45.0274 35.6691 45.0274 33.6154 46.3741L31.0004 48.0899L12.3293 37.1421V3.69535H49.3318ZM9.86251 35.6961L3.44851 31.932L9.86251 27.061V35.6961Z" fill="url(#paint0_linear)"/>
        <path d="M37.22 35.484C35.712 35.484 34.308 35.2673 33.008 34.834C31.708 34.4007 30.5727 33.7333 29.602 32.832C28.6313 31.948 27.8773 30.83 27.34 29.478C26.8027 28.1087 26.534 26.5053 26.534 24.668C26.534 22.328 26.82 20.3 27.392 18.584C27.9813 16.8507 28.796 15.4207 29.836 14.294C30.8933 13.1673 32.1327 12.3267 33.554 11.772C34.9927 11.2173 36.57 10.94 38.286 10.94C39.8633 10.94 41.224 11.2173 42.368 11.772C43.5293 12.3267 44.4827 13.0893 45.228 14.06C45.9733 15.0133 46.5193 16.0967 46.866 17.31C47.23 18.506 47.4033 19.754 47.386 21.054C47.386 22.198 47.2387 23.2813 46.944 24.304C46.6493 25.3093 46.2247 26.202 45.67 26.982C45.1153 27.7447 44.4567 28.3513 43.694 28.802C42.9313 29.2353 42.082 29.452 41.146 29.452C40.6607 29.452 40.2273 29.3567 39.846 29.166C39.4647 28.9753 39.1613 28.698 38.936 28.334C38.7107 27.97 38.5893 27.5453 38.572 27.06C38.4507 27.5973 38.1993 28.1087 37.818 28.594C37.4367 29.0793 36.8647 29.348 36.102 29.4C35.2353 29.4693 34.5073 29.296 33.918 28.88C33.346 28.4467 32.9127 27.866 32.618 27.138C32.3407 26.3927 32.202 25.5953 32.202 24.746C32.202 23.7753 32.3493 22.796 32.644 21.808C32.9387 20.8027 33.3633 19.884 33.918 19.052C34.4727 18.22 35.1227 17.5527 35.868 17.05C36.6307 16.5473 37.4627 16.296 38.364 16.296C38.5547 16.296 38.754 16.3307 38.962 16.4C39.17 16.452 39.3693 16.53 39.56 16.634C39.7507 16.738 39.9153 16.842 40.054 16.946L40.314 16.504H42.342L40.86 26.046C40.8253 26.3753 40.7993 26.6787 40.782 26.956C40.7647 27.2333 40.7993 27.4587 40.886 27.632C40.99 27.8053 41.1807 27.892 41.458 27.892C42.0127 27.892 42.524 27.7273 42.992 27.398C43.46 27.0513 43.8673 26.5747 44.214 25.968C44.578 25.3613 44.8553 24.6593 45.046 23.862C45.254 23.0647 45.358 22.2153 45.358 21.314C45.3753 20.222 45.2453 19.182 44.968 18.194C44.6907 17.206 44.2573 16.3307 43.668 15.568C43.096 14.8053 42.342 14.2073 41.406 13.774C40.4873 13.3407 39.3867 13.124 38.104 13.124C36.752 13.124 35.5213 13.3927 34.412 13.93C33.3027 14.45 32.3493 15.2127 31.552 16.218C30.7547 17.206 30.1393 18.4107 29.706 19.832C29.2727 21.236 29.056 22.8133 29.056 24.564C29.056 25.76 29.186 26.8347 29.446 27.788C29.706 28.724 30.0787 29.5387 30.564 30.232C31.0667 30.9253 31.6647 31.506 32.358 31.974C33.0513 32.4247 33.8227 32.7627 34.672 32.988C35.5387 33.2133 36.466 33.326 37.454 33.326C37.9567 33.326 38.4593 33.3 38.962 33.248C39.482 33.196 40.0107 33.118 40.548 33.014C41.1027 32.91 41.6487 32.78 42.186 32.624L42.68 34.652C41.7267 34.9293 40.7907 35.1373 39.872 35.276C38.9533 35.4147 38.0693 35.484 37.22 35.484ZM36.648 27.268C37.0467 27.1987 37.4367 26.956 37.818 26.54C38.1993 26.1067 38.4767 25.4393 38.65 24.538L39.56 18.48C39.4387 18.4453 39.3173 18.4193 39.196 18.402C39.0747 18.3673 38.9533 18.35 38.832 18.35C38.1387 18.35 37.48 18.6447 36.856 19.234C36.2493 19.806 35.7553 20.5773 35.374 21.548C34.9927 22.5187 34.802 23.5933 34.802 24.772C34.802 25.2747 34.8627 25.734 34.984 26.15C35.1227 26.5487 35.3307 26.852 35.608 27.06C35.8853 27.268 36.232 27.3373 36.648 27.268Z" fill="#7800F1"/>
    </g>
    <defs>
        <linearGradient id="paint0_linear" x1="27.6144" y1="44.9171" x2="55.4297" y2="20.1226" gradientUnits="userSpaceOnUse">
            <stop stop-color="#293DF2"/>
            <stop offset="1" stop-color="#7800F1"/>
        </linearGradient>
        <clipPath id="clip0">
            <rect width="74" height="74" fill="white"/>
        </clipPath>
    </defs>
</svg>
